<?xml version="1.0" encoding="utf-8"?>
<!-- Generator: Adobe Illustrator 18.1.1, SVG Export Plug-In . SVG Version: 6.00 Build 0)  -->
<svg version="1.1" id="Layer_1" xmlns="http://www.w3.org/2000/svg" xmlns:xlink="http://www.w3.org/1999/xlink" x="0px" y="0px"
	 viewBox="0 0 57 42" enable-background="new 0 0 57 42" xml:space="preserve">
<g>
	<linearGradient id="SVGID_1_" gradientUnits="userSpaceOnUse" x1="35.2021" y1="39.3576" x2="13.4336" y2="15.9564">
		<stop  offset="0" style="stop-color:#000000;stop-opacity:0"/>
		<stop  offset="1" style="stop-color:#000000"/>
	</linearGradient>
	<polygon opacity="0.25" fill="url(#SVGID_1_)" points="56.3,41.6 20.3,9.6 21.3,17.6 21.3,21.6 19.3,23.6 15.3,25.6 5.2,27.6 
		23.3,41.6 	"/>
	<g>
		<path fill="#FFFFFF" d="M17.1,24.9C17.1,24.9,17.2,24.9,17.1,24.9c0.3,0.1,0.5,0.1,0.7,0.1c0.2,0,0.5,0,0.7-0.1
			c2.1-0.5,3.8-3,3.8-5.7c0-1.8-0.7-3.2-1.8-4v-1.6c0-6.3-3.8-12.4-8.5-13.6C11.5,0.1,10.9,0,10.4,0c-0.9,0-1.9,0.1-3,0.5
			C2.3,2.6,1.9,12.5,1.9,12.5c-1.1,1.1-1.9,3-1.9,4.7c0,2.2,1,3.9,2.7,4.4l1.1,0.3l0,0c0.2,0.1,0.5,0.1,0.7,0.1c0.2,0,0.5,0,0.7-0.1
			c2.1-0.5,3.8-3,3.8-5.7c0-2.2-1-3.9-2.6-4.3c0,0-0.1,0-0.1,0l-0.9-0.2V10c0-5.2,1.9-8.2,4.2-8.4c4.8-0.4,7.3,7.3,7.2,12.5v0.6
			c-2,0.6-3.5,3-3.6,5.6C13.3,20.3,13.1,24.3,17.1,24.9 M5.9,13.8c0.1,0,0.2,0,0.3,0c0.3,0,0.6,0.1,0.8,0.3c0.5,0.4,0.7,1.2,0.7,2.1
			c0,1.9-1.3,3.5-2.5,3.8c-0.1,0-0.2,0-0.3,0c-0.3,0-0.6-0.1-0.8-0.3c-0.5-0.4-0.7-1.2-0.7-2.1C3.5,15.6,4.8,14.1,5.9,13.8z
			 M16.5,20.7c0-1.9,1.4-3.5,2.5-3.8c0.1,0,0.2,0,0.3,0c0.3,0,0.6,0.1,0.8,0.3c0.5,0.4,0.8,1.2,0.7,2.1c0,1.9-1.4,3.5-2.5,3.8
			c-0.1,0-0.2,0-0.3,0c-0.3,0-0.6-0.1-0.8-0.3C16.7,22.3,16.5,21.5,16.5,20.7z"/>
		<path fill="#FFFFFF" d="M13.5,21.1c0.1,1,0.4,1.8,0.9,2.4c-2.3,2.7-7,2.7-7,2.7c-0.1-1-1.1-1.7-2.1-1.6c-0.1,0-0.2,0-0.3,0.1
			c-0.5,0.1-0.9,0.4-1.2,0.9c-0.3,0.5-0.4,1-0.2,1.5c0.2,0.9,1,1.4,2,1.5c1.3,0.1,6.9,0.7,11.3-3.9l0.1,0"/>
	</g>
</g>
</svg>
