<?xml version="1.0" encoding="utf-8"?>
<!-- Generator: Adobe Illustrator 18.1.1, SVG Export Plug-In . SVG Version: 6.00 Build 0)  -->
<svg version="1.1" id="Layer_1" xmlns="http://www.w3.org/2000/svg" xmlns:xlink="http://www.w3.org/1999/xlink" x="0px" y="0px"
	 viewBox="0 0 78 45" enable-background="new 0 0 78 45" xml:space="preserve">
<g>
	<g>
		<linearGradient id="SVGID_1_" gradientUnits="userSpaceOnUse" x1="46.7899" y1="40.1741" x2="14.1153" y2="5.0488">
			<stop  offset="0" style="stop-color:#000000;stop-opacity:0"/>
			<stop  offset="1" style="stop-color:#000000"/>
		</linearGradient>
		<polygon opacity="0.25" fill="url(#SVGID_1_)" points="77.3,44.6 31.2,8.4 30.4,12.4 30.4,15.4 26.9,19.3 16.1,22.6 0,18.3 
			30.8,43.5 		"/>
	</g>
	<g>
		<path fill="#FFFFFF" d="M32.4,10.1l-12.9,9.1c-0.9,0.6-2,0.7-2.9,0.3L0.7,12c-0.4-0.2-0.6-0.5-0.7-0.9v2.5h0v4
			c0,0.6,0.3,1.1,0.9,1.3l15.8,7.4c1,0.4,2.1,0.3,2.9-0.3l12.8-9c0.4-0.3,0.6-0.7,0.6-1.2V9.3C32.9,9.6,32.7,9.9,32.4,10.1z"/>
		<path fill="#FFFFFF" d="M1.1,10.5l15.5,7.3c0.4,0.2,0.8,0.3,1.3,0.3c0.6,0,1.2-0.2,1.7-0.5l12.3-8.7c0.5-0.3,0.4-1-0.1-1.3
			L16.3,0.3C15.9,0.1,15.5,0,15,0c-0.6,0-1.2,0.2-1.7,0.5L1,9.3C0.6,9.6,0.6,10.3,1.1,10.5z M2.4,9.7L14,1.4C14.5,1,15.2,1,15.8,1.3
			l14.8,6.9c0,0,0.1,0.1,0.1,0.1c0,0.1,0,0.1-0.1,0.1L19,16.7c-0.3,0.2-0.7,0.3-1.1,0.3c-0.3,0-0.5-0.1-0.8-0.2L2.4,9.9
			c0,0-0.1-0.1-0.1-0.1C2.3,9.7,2.3,9.7,2.4,9.7z"/>
	</g>
</g>
</svg>
