<?xml version="1.0" encoding="utf-8"?>
<!-- Generator: Adobe Illustrator 18.0.0, SVG Export Plug-In . SVG Version: 6.00 Build 0)  -->
<!DOCTYPE svg PUBLIC "-//W3C//DTD SVG 1.1//EN" "http://www.w3.org/Graphics/SVG/1.1/DTD/svg11.dtd">
<svg version="1.1" id="Layer_1" xmlns="http://www.w3.org/2000/svg" xmlns:xlink="http://www.w3.org/1999/xlink" x="0px" y="0px"
	 viewBox="0 0 32 32" enable-background="new 0 0 32 32" xml:space="preserve">
<g>
	<circle fill="#FFFFFF" cx="16" cy="16" r="15.5"/>
	<g>
		<defs>
			<path id="SVGID_1_" d="M16,0C7.2,0,0,7.2,0,16s7.2,16,16,16s16-7.2,16-16S24.8,0,16,0z M16,30.4C8,30.4,1.6,24,1.6,16
				S8,1.6,16,1.6S30.4,8,30.4,16S24,30.4,16,30.4z"/>
		</defs>
		<use xlink:href="#SVGID_1_"  overflow="visible" fill="#33A3DC"/>
		<clipPath id="SVGID_2_">
			<use xlink:href="#SVGID_1_"  overflow="visible"/>
		</clipPath>
		<linearGradient id="SVGID_3_" gradientUnits="userSpaceOnUse" x1="6.4356" y1="22.3735" x2="40" y2="22.3735">
			<stop  offset="0" style="stop-color:#000000;stop-opacity:0.1"/>
			<stop  offset="1" style="stop-color:#000000;stop-opacity:0.1"/>
		</linearGradient>
		<polygon clip-path="url(#SVGID_2_)" fill="url(#SVGID_3_)" points="21.6,22.5 20.8,23.6 6.4,26.6 19.6,39 40,18 26.1,5.8 		"/>
	</g>
	<g>
		<defs>
			<path id="SVGID_4_" d="M16,3.8C9.3,3.8,3.8,9.3,3.8,16S9.3,28.2,16,28.2S28.2,22.7,28.2,16S22.7,3.8,16,3.8z"/>
		</defs>
		<use xlink:href="#SVGID_4_"  overflow="visible" fill="#33A3DC"/>
		<clipPath id="SVGID_5_">
			<use xlink:href="#SVGID_4_"  overflow="visible"/>
		</clipPath>
		<g clip-path="url(#SVGID_5_)">
			<linearGradient id="SVGID_6_" gradientUnits="userSpaceOnUse" x1="13.44" y1="21.7242" x2="33.6711" y2="21.7242">
				<stop  offset="0" style="stop-color:#000000;stop-opacity:0.1"/>
				<stop  offset="1" style="stop-color:#000000;stop-opacity:0.1"/>
			</linearGradient>
			<polygon fill="url(#SVGID_6_)" points="15.3,23.3 14.5,24.3 13.4,24.6 26.6,37 33.7,18.7 19.8,6.5 			"/>
			<g>
				<path fill="#FFFFFF" d="M16.1,10.2c0.4,0.3,0.9,0.5,1.6,0.5c0.9,0,1.6-0.3,2.1-0.8c0.5-0.5,0.8-1.2,0.7-2c0-0.5-0.3-1-0.7-1.3
					c-0.4-0.3-0.9-0.5-1.6-0.5c-0.9,0-1.6,0.3-2.1,0.8c-0.6,0.5-0.8,1.2-0.8,2C15.4,9.4,15.6,9.8,16.1,10.2z"/>
				<path fill="#FFFFFF" d="M20.1,21.3c-0.5,0.5-1,0.8-1.5,1.1c-0.4,0.3-0.8,0.4-1,0.4c-0.2,0-0.8-0.2-0.6-0.9
					c0.1-0.4,1.6-6.5,1.6-6.5c0.3-1.3,0.3-1.9,0.3-2.1c0-0.6-0.3-1-0.7-1.3c-0.4-0.3-0.9-0.5-1.5-0.5c-0.8,0-1.7,0.3-2.7,1
					c-1,0.6-2.1,1.6-3.2,2.8l0.8,0.5c0.4-0.5,0.8-0.9,1.2-1.2c1.1-0.9,1.5-0.3,1.3,0.4c-0.1,0.4-1.7,6.4-1.7,7.9
					c0,0.6,0.3,1.1,0.6,1.4c0.4,0.3,1,0.4,1.7,0.4c1,0,2-0.2,3-0.7c1-0.5,2-1.2,3-2.2L20.1,21.3z"/>
			</g>
		</g>
	</g>
</g>
</svg>
