<?xml version="1.0" encoding="utf-8"?>
<!-- Generator: Adobe Illustrator 18.0.0, SVG Export Plug-In . SVG Version: 6.00 Build 0)  -->
<!DOCTYPE svg PUBLIC "-//W3C//DTD SVG 1.1//EN" "http://www.w3.org/Graphics/SVG/1.1/DTD/svg11.dtd">
<svg version="1.1" id="Layer_1" xmlns="http://www.w3.org/2000/svg" xmlns:xlink="http://www.w3.org/1999/xlink" x="0px" y="0px"
	 viewBox="0 0 32 32" enable-background="new 0 0 32 32" xml:space="preserve">
<g>
	<g>
		<g>
			<defs>
				<path id="SVGID_1_" d="M0.3,27.2L14.1,2.7c0.8-1.4,2.9-1.4,3.7,0l13.9,24.6c0.8,1.4-0.2,3.2-1.8,3.2H2.1
					C0.5,30.4-0.5,28.6,0.3,27.2z"/>
			</defs>
			<use xlink:href="#SVGID_1_"  overflow="visible" fill="#B61E82"/>
			<clipPath id="SVGID_2_">
				<use xlink:href="#SVGID_1_"  overflow="visible"/>
			</clipPath>
			<linearGradient id="SVGID_3_" gradientUnits="userSpaceOnUse" x1="14.4393" y1="25.8499" x2="53.4654" y2="25.8499">
				<stop  offset="0" style="stop-color:#000000;stop-opacity:0.1"/>
				<stop  offset="1" style="stop-color:#000000;stop-opacity:0.1"/>
			</linearGradient>
			<polygon clip-path="url(#SVGID_2_)" fill="url(#SVGID_3_)" points="18.2,23.4 16.6,25.6 14.4,26.1 30.1,41.6 53.5,34.3 
				26.4,18.3 18.2,10.1 			"/>
		</g>
		<path fill="#FFFFFF" d="M13.8,14.1c0-1.3,0-2.7,0-4c1.5,0,2.9,0,4.4,0c0,1.5,0,2.9,0,4.4c0,0.1,0,0.1,0,0.2
			c-0.1,1.5-0.2,2.9-0.3,4.4c0,0.7-0.1,1.4-0.2,2.1c0,0.3-0.2,0.4-0.5,0.4c-0.8,0-1.5,0-2.3,0c-0.4,0-0.5-0.1-0.6-0.4
			c0-0.3,0-0.5-0.1-0.8c-0.1-1.8-0.2-3.6-0.4-5.4C13.9,14.7,13.8,14.4,13.8,14.1z M14,24.8c0,0.2,0.1,0.5,0.2,0.7
			c0.1,0.2,0.3,0.3,0.4,0.4c1.2,0,2.4,0,3.6,0c0-1,0-1.9,0-2.9c-0.2-0.2-0.4-0.2-0.6-0.2c-1.1,0-2.1,0-3.2,0c-0.4,0-0.5,0-0.6,0.3
			c0,0.1,0,0.2,0,0.3C13.9,23.9,13.9,24.4,14,24.8z"/>
	</g>
</g>
</svg>
