<?xml version="1.0" encoding="utf-8"?>
<!-- Generator: Adobe Illustrator 18.0.0, SVG Export Plug-In . SVG Version: 6.00 Build 0)  -->
<!DOCTYPE svg PUBLIC "-//W3C//DTD SVG 1.1//EN" "http://www.w3.org/Graphics/SVG/1.1/DTD/svg11.dtd">
<svg version="1.1" id="Layer_1" xmlns="http://www.w3.org/2000/svg" xmlns:xlink="http://www.w3.org/1999/xlink" x="0px" y="0px"
	 viewBox="0 0 32 32" enable-background="new 0 0 32 32" xml:space="preserve">
<g>
	<g>
		<defs>
			<path id="SVGID_1_" d="M14.6,31.4L0.6,17.4c-0.8-0.8-0.8-2,0-2.7L14.6,0.6c0.8-0.8,2-0.8,2.7,0l14.1,14.1c0.8,0.8,0.8,2,0,2.7
				L17.4,31.4C16.6,32.2,15.4,32.2,14.6,31.4z"/>
		</defs>
		<use xlink:href="#SVGID_1_"  overflow="visible" fill="#FAA61A"/>
		<clipPath id="SVGID_2_">
			<use xlink:href="#SVGID_1_"  overflow="visible"/>
		</clipPath>
		<g clip-path="url(#SVGID_2_)">
			<linearGradient id="SVGID_3_" gradientUnits="userSpaceOnUse" x1="17.9879" y1="18.9091" x2="31.3216" y2="18.9091">
				<stop  offset="0" style="stop-color:#000000;stop-opacity:0.1"/>
				<stop  offset="1" style="stop-color:#000000;stop-opacity:0"/>
			</linearGradient>
			<polygon fill="url(#SVGID_3_)" points="17.9,21.8 16.6,22.3 15,23.8 21.3,29.6 30.5,20.4 17.9,8.2 17,19.4 17,20.8 			"/>
			<g>
				<path fill="#FFFFFF" d="M14.1,8.2h3.9c0,0,0,4.8,0,4.8c-0.1,1.3-0.4,5.2-0.5,5.8c0,0.3-0.5,0.5-0.5,0.5H15c0,0-0.4-0.2-0.5-0.5
					c0-0.2-0.4-4.2-0.5-5.8C14.1,12.8,14.1,8.2,14.1,8.2z"/>
				<path fill="#FFFFFF" d="M14.1,22.8c0,0.5,0.8,0.8,1,1c1.1,0,1.8,0,2.9,0c0-0.9,0-1.9,0-2.4c0-0.5-0.5-0.5-0.5-0.5h-2.9
					c0,0-0.5,0-0.5,0.5C14.1,21.8,14.1,22.3,14.1,22.8z"/>
			</g>
		</g>
	</g>
</g>
</svg>
